^C:\DOCUMENTS\VISUAL STUDIO 2022\PROJECTS\ARRAYHW\ARRAYHW\ARRAYHW.CPP
C:\DOCUMENTS\VISUAL STUDIO 2022\PROJECTS\ARRAYHW\ARRAYHW\X64\DEBUG\VC143.PDB
C:\DOCUMENTS\VISUAL STUDIO 2022\PROJECTS\ARRAYHW\ARRAYHW\X64\DEBUG\VC143.IDB
C:\DOCUMENTS\VISUAL STUDIO 2022\PROJECTS\ARRAYHW\ARRAYHW\X64\DEBUG\ARRAYHW.OBJ
